…
```r
match1 <-
  ref_fwd %>% 
  group_by(com) %>%
  filter(out,inn)%>%
  mutate(com_fin=com,iris_fin=iris,match=1)%>%
  select(com,iris,com_out=com_fin,iris_out=iris_fin,match)
match1
```

```
## # A tibble: 49,713 × 5
## # Groups:   com [35,449]
##    com   iris      com_out iris_out  match
##    <chr> <chr>     <chr>   <chr>     <dbl>
##  1 01001 010010000 01001   010010000     1
##  2 01002 010020000 01002   010020000     1
##  3 01004 010040101 01004   010040101     1
##  4 01004 010040102 01004   010040102     1
##  5 01004 010040201 01004   010040201     1
##  6 01004 010040202 01004   010040202     1
##  7 01005 010050000 01005   010050000     1
##  8 01006 010060000 01006   010060000     1
##  9 01007 010070000 01007   010070000     1
## 10 01008 010080000 01008   010080000     1
## # … with 49,703 more rows
```
…
```
## # A tibble: 403 × 5
##    com   iris      com_out iris_out  match
##    <chr> <chr>     <chr>   <chr>     <dbl>
##  1 01172 011720000 01095   010950000     3
##  2 01316 013160000 01098   010980000     3
##  3 03318 033180000 03168   031680000     3
##  4 04198 041980000 04033   040330000     3
##  5 05175 051750000 05101   051010000     3
##  6 08371 083710000 08053   080530000     3
##  7 08475 084750000 08053   080530000     3
##  8 08072 080720000 08491   084910000     3
##  9 09317 093170000 09062   090620000     3
## 10 12020 120200000 12090   120900000     3
## # … with 393 more rows
```
…
match5 %<>%
  filter(inn) %>%
  select(com, iris) %>%
  left_join( match5 %>%
               filter(out) %>%
               select(com, iris_out = iris)
            ) %>%
  mutate(com_out=com) %>% 
  mutate(match=5)

match5
```

```
## # A tibble: 43 × 5
## # Groups:   com [8]
##    com   iris      iris_out  com_out match
##    <chr> <chr>     <chr>     <chr>   <dbl>
##  1 49018 490180000 490180101 49018       5
##  2 49018 490180000 490180102 49018       5
##  3 49018 490180000 490180103 49018       5
##  4 49018 490180000 490180201 49018       5
##  5 49018 490180000 490180202 49018       5
##  6 49050 490500000 490500101 49050       5
##  7 49050 490500000 490500102 49050       5
##  8 49050 490500000 490500103 49050       5
##  9 49050 490500000 490500104 49050       5
## 10 49050 490500000 490500105 49050       5
## # … with 33 more rows
```
…
ref_fwd %>%
  filter(is.na(out)) %>% 
  anti_join(ref_tmp %>% select(iris)) 
```

```
## # A tibble: 94 × 4
##    com   iris      inn   out  
##    <chr> <chr>     <lgl> <lgl>
##  1 08443 084430000 TRUE  NA   
##  2 08493 084930000 TRUE  NA   
##  3 24053 240530201 TRUE  NA   
##  4 24447 244470000 TRUE  NA   
##  5 27265 272650000 TRUE  NA   
##  6 35209 352090000 TRUE  NA   
##  7 35254 352540000 TRUE  NA   
##  8 49001 490010000 TRUE  NA   
##  9 49014 490140000 TRUE  NA   
## 10 49037 490370000 TRUE  NA   
## # … with 84 more rows
```

```r
ref_fwd %>%
  filter(is.na(inn)) %>%  
  anti_join(ref_tmp %>% select(iris = iris_out))  
```

```
## # A tibble: 61 × 4
##    com   iris      inn   out  
##    <chr> <chr>     <lgl> <lgl>
##  1 08490 084900201 NA    TRUE 
##  2 24053 240530103 NA    TRUE 
##  3 27679 276790201 NA    TRUE 
##  4 35069 350690201 NA    TRUE 
##  5 49023 490230202 NA    TRUE 
##  6 49023 490230203 NA    TRUE 
##  7 49023 490230204 NA    TRUE 
##  8 49023 490230205 NA    TRUE 
##  9 49023 490230206 NA    TRUE 
## 10 49092 490920202 NA    TRUE 
## # … with 51 more rows
```
…
```
## n
##   1 
## 101
```

```r
match6
```

```
## # A tibble: 101 × 5
##    com   iris      com_out iris_out  match
##    <chr> <chr>     <chr>   <chr>     <dbl>
##  1 08443 084430000 08490   084900201     6
##  2 08493 084930000 08490   084900201     6
##  3 24447 244470000 24053   240530103     6
##  4 27265 272650000 27679   276790201     6
##  5 35209 352090000 35069   350690201     6
##  6 35254 352540000 35069   350690201     6
##  7 49001 490010000 49050   490500102     6
##  8 49014 490140000 49331   493310204     6
##  9 49018 490180000 49018   490180101     6
## 10 49037 490370000 49331   493310202     6
## # … with 91 more rows
```
…
