…
```r

data(dt_pop_2013)

dt_pop_2013%>%
  left_join(com_15_17,by="com")%>%
  group_by(com_out)%>%
  summarise(pop=sum(pds_com*pop))
#> Warning in left_join(., com_15_17, by = "com"): Each row in `x` is expected to match at most 1 row in `y`.
#> ℹ Row 6292201 of `x` matches multiple rows.
#> ℹ If multiple matches are expected, set `multiple = "all"` to silence this warning.
#> # A tibble: 35,441 × 2
#>    com_out    pop
#>    <fct>    <dbl>
#>  1 01001     767.
#>  2 01002     236.
#>  3 01004   14359.
#>  4 01005    1635.
#>  5 01006     108.
#>  6 01007    2503.
#>  7 01008     744 
#>  8 01009     337 
#>  9 01010    1108.
#> 10 01011     394.
#> # … with 35,431 more rows
```
…
         geo_out = 2017)
#> ---------------------------------------
#> Fusions et scissions entre les périodes
#> ---------------------------------------
#> 
#> |statut    |  Freq|
#> |:---------|-----:|
#> |Fusion    |  1750|
#> |Inchangée | 34949|
#> |Scission  |     1|
#> --------------------------------------------------------------------------------
#> Les poids des communes séparées sont calculés au prorata de leurs populations
#> au moment de la scission
#> --------------------------------------------------------------------------------
#> # A tibble: 35,441 × 5
#>    com   annee_pop    pop statut    annee_geo
#>    <chr>     <dbl>  <dbl> <chr>         <dbl>
#>  1 01001    402600   767. Inchangée      2017
#>  2 01002    402600   236. Inchangée      2017
#>  3 01004    402600 14359. Inchangée      2017
#>  4 01005    402600  1635. Inchangée      2017
#>  5 01006    402600   108. Inchangée      2017
#>  6 01007    402600  2503. Inchangée      2017
#>  7 01008    402600   744  Inchangée      2017
#>  8 01009    402600   337  Inchangée      2017
#>  9 01010    402600  1108. Inchangée      2017
#> 10 01011    402600   394. Inchangée      2017
#> # … with 35,431 more rows
```
…
         by=~sexe+cut(age,breaks=c(-Inf,65,Inf))+dep+annee_pop)
#> ---------------------------------------
#> Fusions et scissions entre les périodes
#> ---------------------------------------
#> 
#> |statut    |  Freq|
#> |:---------|-----:|
#> |Fusion    |     4|
#> |Inchangée | 36682|
#> |Scission  |    14|
#> --------------------------------------------------------------------------------
#> Les poids des communes séparées sont calculés au prorata de leurs populations
#> au moment de la scission
#> --------------------------------------------------------------------------------
#> # A tibble: 146,824 × 8
#>    com    sexe age       dep   annee_pop    pop statut    annee_geo
#>    <chr> <dbl> <fct>     <chr>     <int>  <dbl> <chr>         <dbl>
#>  1 01001     1 (-Inf,65] 01         2013  334.  Inchangée      2013
#>  2 01001     1 (65, Inf] 01         2013   55.1 Inchangée      2013
#>  3 01001     2 (-Inf,65] 01         2013  315.  Inchangée      2013
#>  4 01001     2 (65, Inf] 01         2013   62.9 Inchangée      2013
#>  5 01002     1 (-Inf,65] 01         2013  103.  Inchangée      2013
#>  6 01002     1 (65, Inf] 01         2013   22.2 Inchangée      2013
#>  7 01002     2 (-Inf,65] 01         2013   93.8 Inchangée      2013
#>  8 01002     2 (65, Inf] 01         2013   17.1 Inchangée      2013
#>  9 01004     1 (-Inf,65] 01         2013 6006.  Inchangée      2013
#> 10 01004     1 (65, Inf] 01         2013  870.  Inchangée      2013
#> # … with 146,814 more rows
```
…
#> ---------------------------------------
#> Fusions et scissions entre les périodes
#> ---------------------------------------
#> 
#> |statut    |  Freq|
#> |:---------|-----:|
#> |Fusion    |     2|
#> |Inchangée | 34545|
#> |Scission  |   465|
#> --------------------------------------------------------------------------------
#> Les poids des communes séparées sont calculés au prorata de leurs populations
#> au moment de la scission
#> --------------------------------------------------------------------------------
cp_iris
#> # A tibble: 51,934 × 5
#>    cp    iris      pds_iris statut    annee_geo
#>    <fct> <chr>        <dbl> <chr>         <dbl>
#>  1 01000 010530101  0.00567 Inchangée      2016
#>  2 01000 010530102  0.0549  Inchangée      2016
#>  3 01000 010530103  0.00558 Inchangée      2016
#>  4 01000 010530201  0.00656 Inchangée      2016
#>  5 01000 010530202  0.0621  Inchangée      2016
#>  6 01000 010530203  0.0571  Inchangée      2016
#>  7 01000 010530301  0.0763  Inchangée      2016
#>  8 01000 010530302  0.0943  Inchangée      2016
#>  9 01000 010530401  0.0631  Inchangée      2016
#> 10 01000 010530402  0.0698  Inchangée      2016
#> # … with 51,924 more rows
```
…
